1,18.098,t2
2,36.2338,t2
3,54.3391,t2
4,72.2906,t2
5,90.2727,t2
6,108.265,t2
7,126.25,t2
8,144.169,t2
9,162.207,t2
10,180.239,t2
11,198.236,t2
12,216.246,t2
13,234.282,t2
14,252.29,t2
15,270.305,t2
16,288.321,t2
17,306.307,t2
18,324.344,t2
19,342.329,t2
20,360.374,t2
