1,7.64339,t32
2,15.2849,t32
3,22.8931,t32
4,30.5831,t32
5,38.2265,t32
6,45.8378,t32
7,53.4551,t32
8,61.0819,t32
9,68.6946,t32
10,76.3159,t32
11,83.953,t32
12,91.5999,t32
13,99.2314,t32
14,106.847,t32
15,117.724,t32
16,125.339,t32
17,132.952,t32
18,140.56,t32
19,148.168,t32
20,155.803,t32
