1,13.4877,t4
2,26.9532,t4
3,40.422,t4
4,53.9132,t4
5,67.4461,t4
6,80.9323,t4
7,94.4178,t4
8,107.89,t4
9,121.325,t4
10,134.741,t4
11,148.156,t4
12,161.567,t4
13,174.972,t4
14,188.39,t4
15,201.802,t4
16,215.212,t4
17,228.623,t4
18,242.037,t4
19,255.452,t4
20,268.863,t4
